%YAML 1.1
%TAG !u! tag:unity3d.com,2011:
--- !u!114 &11400000
MonoBehaviour:
  m_ObjectHideFlags: 0
  m_CorrespondingSourceObject: {fileID: 0}
  m_PrefabInstance: {fileID: 0}
  m_PrefabAsset: {fileID: 0}
  m_GameObject: {fileID: 0}
  m_Enabled: 1
  m_EditorHideFlags: 0
  m_Script: {fileID: 11500000, guid: 3dd73b6add5f47f48aa6e9eab6993b04, type: 3}
  m_Name: Ranged - XS
  m_EditorClassIdentifier: 
  spawnable: {fileID: 4806661978532403896, guid: 6f107f8339dcf76458240dbce11ed0a3, type: 3}
  lowEnd: 1
  highEnd: 1
