%YAML 1.1
%TAG !u! tag:unity3d.com,2011:
--- !u!114 &11400000
MonoBehaviour:
  m_ObjectHideFlags: 0
  m_CorrespondingSourceObject: {fileID: 0}
  m_PrefabInstance: {fileID: 0}
  m_PrefabAsset: {fileID: 0}
  m_GameObject: {fileID: 0}
  m_Enabled: 1
  m_EditorHideFlags: 0
  m_Script: {fileID: 11500000, guid: c1ff210a2cbae21428a74c4a99b787be, type: 3}
  m_Name: Melee Group Fire - XS
  m_EditorClassIdentifier: 
  minigroups:
  - {fileID: 11400000, guid: 3981464ee9f4f42438b93e4c3adae113, type: 2}
