%YAML 1.1
%TAG !u! tag:unity3d.com,2011:
--- !u!114 &11400000
MonoBehaviour:
  m_ObjectHideFlags: 0
  m_CorrespondingSourceObject: {fileID: 0}
  m_PrefabInstance: {fileID: 0}
  m_PrefabAsset: {fileID: 0}
  m_GameObject: {fileID: 0}
  m_Enabled: 1
  m_EditorHideFlags: 0
  m_Script: {fileID: 11500000, guid: 3dd73b6add5f47f48aa6e9eab6993b04, type: 3}
  m_Name: BigBoy
  m_EditorClassIdentifier: 
  spawnable: {fileID: 5038804872977715986, guid: 07ce8afdf840f2144a8e1c2896a3c20c, type: 3}
  lowEnd: 1
  highEnd: 1
