# Blender v2.80 (sub 75) OBJ File: ''
# www.blender.org
mtllib fence3.mtl
o Cube.001_Cube.002
v -0.219547 6.048823 0.665947
v -0.219547 4.629124 -9.352841
v -0.219547 5.281595 0.774666
v -0.219547 3.861896 -9.244123
v 0.219547 6.048823 0.665947
v 0.219547 4.629124 -9.352841
v 0.219547 5.281595 0.774666
v 0.219547 3.861896 -9.244123
v -0.355066 0.000297 0.455908
v -0.355066 7.122158 0.455908
v -0.355066 0.000298 -0.455908
v -0.355066 7.122158 -0.455908
v 0.355066 0.000297 0.455908
v 0.355066 7.122158 0.455908
v 0.355066 0.000298 -0.455908
v 0.355066 7.122158 -0.455908
v -0.219547 2.257768 0.778308
v -0.219547 2.505069 -9.337545
v -0.219547 1.483107 0.759370
v -0.219547 1.730408 -9.356483
v 0.219547 2.257768 0.778308
v 0.219547 2.505069 -9.337545
v 0.219547 1.483107 0.759370
v 0.219547 1.730408 -9.356483
v -0.355066 0.000298 -8.270327
v -0.355066 7.122158 -8.270327
v -0.355066 0.000298 -9.182142
v -0.355066 7.122158 -9.182142
v 0.355066 0.000298 -8.270327
v 0.355066 7.122158 -8.270327
v 0.355066 0.000298 -9.182142
v 0.355066 7.122158 -9.182142
vt 0.375000 0.000000
vt 0.625000 0.000000
vt 0.625000 0.250000
vt 0.375000 0.250000
vt 0.625000 0.500000
vt 0.375000 0.500000
vt 0.625000 0.750000
vt 0.375000 0.750000
vt 0.625000 1.000000
vt 0.375000 1.000000
vt 0.125000 0.500000
vt 0.125000 0.750000
vt 0.875000 0.500000
vt 0.875000 0.750000
vt 0.375000 0.000000
vt 0.625000 0.000000
vt 0.625000 0.250000
vt 0.375000 0.250000
vt 0.625000 0.500000
vt 0.375000 0.500000
vt 0.625000 0.750000
vt 0.375000 0.750000
vt 0.625000 1.000000
vt 0.375000 1.000000
vt 0.125000 0.500000
vt 0.125000 0.750000
vt 0.875000 0.500000
vt 0.875000 0.750000
vt 0.375000 0.000000
vt 0.625000 0.000000
vt 0.625000 0.250000
vt 0.375000 0.250000
vt 0.625000 0.500000
vt 0.375000 0.500000
vt 0.625000 0.750000
vt 0.375000 0.750000
vt 0.625000 1.000000
vt 0.375000 1.000000
vt 0.125000 0.500000
vt 0.125000 0.750000
vt 0.875000 0.500000
vt 0.875000 0.750000
vt 0.375000 0.000000
vt 0.625000 0.000000
vt 0.625000 0.250000
vt 0.375000 0.250000
vt 0.625000 0.500000
vt 0.375000 0.500000
vt 0.625000 0.750000
vt 0.375000 0.750000
vt 0.625000 1.000000
vt 0.375000 1.000000
vt 0.125000 0.500000
vt 0.125000 0.750000
vt 0.875000 0.500000
vt 0.875000 0.750000
vn -1.0000 0.0000 0.0000
vn 0.0000 -0.9901 0.1403
vn 1.0000 0.0000 0.0000
vn 0.0000 0.9901 -0.1403
vn 0.0000 0.1403 0.9901
vn 0.0000 -0.1403 -0.9901
vn 0.0000 0.0000 -1.0000
vn 0.0000 0.0000 1.0000
vn 0.0000 -1.0000 -0.0000
vn 0.0000 1.0000 0.0000
vn 0.0000 -0.9997 -0.0244
vn 0.0000 0.9997 0.0244
vn 0.0000 -0.0244 0.9997
vn 0.0000 0.0244 -0.9997
usemtl None
s off
f 1/1/1 2/2/1 4/3/1 3/4/1
f 3/4/2 4/3/2 8/5/2 7/6/2
f 7/6/3 8/5/3 6/7/3 5/8/3
f 5/8/4 6/7/4 2/9/4 1/10/4
f 3/11/5 7/6/5 5/8/5 1/12/5
f 8/5/6 4/13/6 2/14/6 6/7/6
f 9/15/1 10/16/1 12/17/1 11/18/1
f 11/18/7 12/17/7 16/19/7 15/20/7
f 15/20/3 16/19/3 14/21/3 13/22/3
f 13/22/8 14/21/8 10/23/8 9/24/8
f 11/25/9 15/20/9 13/22/9 9/26/9
f 16/19/10 12/27/10 10/28/10 14/21/10
f 17/29/1 18/30/1 20/31/1 19/32/1
f 19/32/11 20/31/11 24/33/11 23/34/11
f 23/34/3 24/33/3 22/35/3 21/36/3
f 21/36/12 22/35/12 18/37/12 17/38/12
f 19/39/13 23/34/13 21/36/13 17/40/13
f 24/33/14 20/41/14 18/42/14 22/35/14
f 25/43/1 26/44/1 28/45/1 27/46/1
f 27/46/7 28/45/7 32/47/7 31/48/7
f 31/48/3 32/47/3 30/49/3 29/50/3
f 29/50/8 30/49/8 26/51/8 25/52/8
f 27/53/9 31/48/9 29/50/9 25/54/9
f 32/47/10 28/55/10 26/56/10 30/49/10
