%YAML 1.1
%TAG !u! tag:unity3d.com,2011:
--- !u!114 &11400000
MonoBehaviour:
  m_ObjectHideFlags: 0
  m_CorrespondingSourceObject: {fileID: 0}
  m_PrefabInstance: {fileID: 0}
  m_PrefabAsset: {fileID: 0}
  m_GameObject: {fileID: 0}
  m_Enabled: 1
  m_EditorHideFlags: 0
  m_Script: {fileID: 11500000, guid: 89773db233a8ba0439178b3ec67d5ad7, type: 3}
  m_Name: Wave 1
  m_EditorClassIdentifier: 
  waveSlots:
  - waveSlotElements:
    - spawnGroup: {fileID: 11400000, guid: 07a66f585e6d837479a9f9ae74c4562e, type: 2}
      weight: 1
  - waveSlotElements:
    - spawnGroup: {fileID: 11400000, guid: c1d238988408ad1469239d832f432d68, type: 2}
      weight: 1
  timeForWave: 150
