%YAML 1.1
%TAG !u! tag:unity3d.com,2011:
--- !u!114 &11400000
MonoBehaviour:
  m_ObjectHideFlags: 0
  m_CorrespondingSourceObject: {fileID: 0}
  m_PrefabInstance: {fileID: 0}
  m_PrefabAsset: {fileID: 0}
  m_GameObject: {fileID: 0}
  m_Enabled: 1
  m_EditorHideFlags: 0
  m_Script: {fileID: 11500000, guid: 89773db233a8ba0439178b3ec67d5ad7, type: 3}
  m_Name: Wave 3
  m_EditorClassIdentifier: 
  waveSlots:
  - waveSlotElements:
    - spawnGroup: {fileID: 11400000, guid: 07a66f585e6d837479a9f9ae74c4562e, type: 2}
      weight: 3
    - spawnGroup: {fileID: 11400000, guid: 0d04a4e6d7467ae4c901618782708e98, type: 2}
      weight: 1
    - spawnGroup: {fileID: 11400000, guid: 8c11f1914a06a1d47b0ebdfc4837a564, type: 2}
      weight: 1
    - spawnGroup: {fileID: 11400000, guid: da3468dd9c6e04d499415c7b19da91ca, type: 2}
      weight: 1
  - waveSlotElements:
    - spawnGroup: {fileID: 11400000, guid: c1d238988408ad1469239d832f432d68, type: 2}
      weight: 1
  timeForWave: 200
