%YAML 1.1
%TAG !u! tag:unity3d.com,2011:
--- !u!114 &11400000
MonoBehaviour:
  m_ObjectHideFlags: 0
  m_CorrespondingSourceObject: {fileID: 0}
  m_PrefabInstance: {fileID: 0}
  m_PrefabAsset: {fileID: 0}
  m_GameObject: {fileID: 0}
  m_Enabled: 1
  m_EditorHideFlags: 0
  m_Script: {fileID: 11500000, guid: c1ff210a2cbae21428a74c4a99b787be, type: 3}
  m_Name: BigBoyGroup
  m_EditorClassIdentifier: 
  minigroups:
  - {fileID: 11400000, guid: bd01d91af328221448105bb047dcbb10, type: 2}
  - {fileID: 11400000, guid: f7788ce9db8c6a34b9bacc58d8a42911, type: 2}
  - {fileID: 11400000, guid: 35348e4c9818a2142bec8d21aecc776b, type: 2}
  - {fileID: 11400000, guid: 9f3aefaea91f96448ad4ba826937529b, type: 2}
  - {fileID: 11400000, guid: 2c2c47c8f0193a0419f29a841359dc67, type: 2}
